{
  "totalOverall": 1272,
  "totalCommon": 637,
  "totalUncommon": 220,
  "totalRare": 338,
  "totalMythic": 74,
  "totalPrices": {
    "usd": 1077.24,
    "usd_foil": 6550.31,
    "usd_etched": 1.35,
    "usd_glossy": 0.00,
    "eur": 839.30,
    "eur_foil": 4971.60,
    "eur_etched": 0.00,
    "eur_glossy": 0.00,
    "tix": 205.86,
    "ck": 1596.84,
    "ck_foil": 7233.07,
    "ck_etched": 2.77,
    "ck_glossy": 0.00,
    "lastUpdatedAtUtc": "2024-08-26T01:28:40.857Z",
    "ck_buy": 615.81,
    "ck_buy_foil": 3982.36,
    "csi": 1354.92,
    "csi_foil": 6709.19,
    "csi_etched": 0.00,
    "csi_glossy": 0.00,
    "csi_buy": 347.31,
    "csi_buy_foil": 2740.65,
    "csi_buy_etched": 0.00,
    "ct": 949.80,
    "ct_foil": 5551.13,
    "ct_etched": 4.60,
    "f2f": 0.00,
    "f2f_foil": 0.00,
    "f2f_etched": 0.00
  },
  "isEmpty": false,
  "pageNumber": 3,
  "pageSize": 50,
  "totalResults": 1019,
  "totalPages": 21,
  "data": [
    {
      "id": "XXXX",
      "quantity": 1,
      "condition": "nearMint",
      "game": "paper",
      "finish": "nonFoil",
      "isFoil": false,
      "isAlter": false,
      "isProxy": false,
      "isPrefPrinting": false,
      "createdAtUtc": "2024-08-22T05:24:03.753Z",
      "lastUpdatedAtUtc": "2024-08-22T05:24:03.753Z",
      "rarity": "rare",
      "language": {
        "id": "XXX",
        "code": "en",
        "printedCode": "en",
        "name": "English"
      },
      "tradeBinder": {
        "id": "XXX",
        "publicId": "XXX",
        "name": "Binder name"
      },
      "card": {
        "id": "XXXX",
        "uniqueCardId": "XXXX",
        "scryfall_id": "XXXX",
        "set": "scd",
        "set_name": "Starter Commander Decks",
        "name": "Camaraderie",
        "cn": "219",
        "layout": "normal",
        "cmc": 6.0000,
        "type": "4",
        "type_line": "Sorcery",
        "oracle_text": "You gain X life and draw X cards, where X is the number of creatures you control. Creatures you control get +1/+1 until end of turn.",
        "mana_cost": "{4}{G}{W}",
        "colors": [
          "G",
          "W"
        ],
        "color_indicator": [],
        "color_identity": [
          "G",
          "W"
        ],
        "legalities": {
          "standard": "not_legal",
          "future": "not_legal",
          "historic": "legal",
          "timeless": "legal",
          "gladiator": "legal",
          "pioneer": "legal",
          "explorer": "legal",
          "modern": "legal",
          "legacy": "legal",
          "pauper": "not_legal",
          "vintage": "legal",
          "penny": "legal",
          "commander": "legal",
          "oathbreaker": "legal",
          "standardbrawl": "not_legal",
          "brawl": "legal",
          "alchemy": "not_legal",
          "paupercommander": "not_legal",
          "duel": "legal",
          "oldschool": "not_legal",
          "premodern": "not_legal",
          "predh": "not_legal"
        },
        "frame": "2015",
        "reserved": false,
        "digital": false,
        "foil": false,
        "nonfoil": true,
        "etched": false,
        "glossy": false,
        "rarity": "rare",
        "border_color": "black",
        "colorshifted": false,
        "flavor_text": "\"Within the song of Mat'Selesnya, one becomes all.\"\n—Heruj, Selesnya hierophant",
        "lang": "en",
        "latest": true,
        "has_multiple_editions": true,
        "has_arena_legal": true,
        "prices": {
          "usd": 0.2100,
          "eur": 0.1700,
          "tix": 0.4900,
          "ck": 0.4900,
          "lastUpdatedAtUtc": "2024-08-26T00:49:09.871Z",
          "ck_buy": 0.0600,
          "csi": 0.4900,
          "csi_buy": 0.1000,
          "ct": 0.2000
        },
        "card_faces": [],
        "artist": "Sidharth Chaturvedi",
        "promo_types": [],
        "cardHoarderUrl": "https://www.cardhoarder.com/cards/xxxx",
        "cardKingdomUrl": "mtg/starter-commander-decks/camaraderie",
        "cardMarketUrl": "https://www.cardmarket.com/en/Magic/Products/Singles/Starter-Commander-Decks/Camaraderiexxxx",
        "tcgPlayerUrl": "https://tcgplayer.pxf.io/c/xxxx",
        "isArenaLegal": false,
        "released_at": "2022-12-02",
        "edhrec_rank": 2831,
        "cardmarket_id": 689122,
        "mtgo_id": 104016,
        "tcgplayer_id": 456772,
        "cardkingdom_id": 271680,
        "reprint": true,
        "set_type": "commander",
        "coolStuffIncUrl": "http://www.coolstuffinc.com/p/Magic%3A+The+Gathering/Camaraderie",
        "acorn": false,
        "image_seq": 114124696,
        "cardTraderUrl": "https://www.cardtrader.com/cards/232403",
        "content_warning": false,
        "isToken": false,
        "defaultFinish": "nonFoil"
      }
    },
    {
      "id": "XXX",
      "quantity": 1,
      "condition": "nearMint",
      "game": "paper",
      "finish": "nonFoil",
      "isFoil": false,
      "isAlter": false,
      "isProxy": false,
      "isPrefPrinting": false,
      "createdAtUtc": "2024-08-20T06:41:59.823Z",
      "lastUpdatedAtUtc": "2024-08-20T06:41:59.823Z",
      "rarity": "rare",
      "language": {
        "id": "XXXX",
        "code": "en",
        "printedCode": "en",
        "name": "English"
      },
      "tradeBinder": {
        "id": "XXX",
        "publicId": "XXXX",
        "name": "Binder name"
      },
      "card": {
        "id": "XXX",
        "uniqueCardId": "XXX",
        "scryfall_id": "XXXX",
        "set": "roe",
        "set_name": "Rise of the Eldrazi",
        "name": "Coralhelm Commander",
        "cn": "57",
        "layout": "leveler",
        "cmc": 2.0000,
        "type": "3",
        "type_line": "Creature — Merfolk Soldier",
        "oracle_text": "Level up {1} ({1}: Put a level counter on this. Level up only as a sorcery.)\nLEVEL 2-3\n3/3\nFlying\nLEVEL 4+\n4/4\nFlying\nOther Merfolk creatures you control get +1/+1.",
        "mana_cost": "{U}{U}",
        "power": "2",
        "toughness": "2",
        "colors": [
          "U"
        ],
        "color_indicator": [],
        "color_identity": [
          "U"
        ],
        "legalities": {
          "standard": "not_legal",
          "future": "not_legal",
          "historic": "not_legal",
          "timeless": "not_legal",
          "gladiator": "not_legal",
          "pioneer": "not_legal",
          "explorer": "not_legal",
          "modern": "legal",
          "legacy": "legal",
          "pauper": "not_legal",
          "vintage": "legal",
          "penny": "legal",
          "commander": "legal",
          "oathbreaker": "legal",
          "standardbrawl": "not_legal",
          "brawl": "not_legal",
          "alchemy": "not_legal",
          "paupercommander": "not_legal",
          "duel": "legal",
          "oldschool": "not_legal",
          "premodern": "not_legal",
          "predh": "legal"
        },
        "frame": "2003",
        "reserved": false,
        "digital": false,
        "foil": true,
        "nonfoil": true,
        "etched": false,
        "glossy": false,
        "rarity": "rare",
        "border_color": "black",
        "colorshifted": false,
        "lang": "en",
        "latest": false,
        "has_multiple_editions": true,
        "has_arena_legal": false,
        "prices": {
          "usd": 1.1100,
          "usd_foil": 4.5700,
          "eur": 0.5600,
          "eur_foil": 4.1200,
          "tix": 0.0200,
          "ck": 0.6900,
          "ck_foil": 4.4900,
          "lastUpdatedAtUtc": "2024-08-26T00:49:09.871Z",
          "ck_buy": 0.1800,
          "ck_buy_foil": 1.8000,
          "csi": 1.4900,
          "csi_foil": 4.9900,
          "csi_buy": 0.0000,
          "csi_buy_foil": 0.0000,
          "ct": 0.3500,
          "ct_foil": 3.0500
        },
        "card_faces": [],
        "artist": "Jaime Jones",
        "promo_types": [],
        "cardHoarderUrl": "https://www.cardhoarder.com/cards/XXXXX",
        "cardKingdomUrl": "mtg/rise-of-the-eldrazi/coralhelm-commander",
        "cardKingdomFoilUrl": "mtg/rise-of-the-eldrazi/coralhelm-commander-foil",
        "cardMarketUrl": "https://www.cardmarket.com/XXXX",
        "tcgPlayerUrl": "https://tcgplayer.pxf.io/XXXX",
        "isArenaLegal": false,
        "released_at": "2010-04-23",
        "edhrec_rank": 8446,
        "multiverse_ids": [
          193651
        ],
        "cardmarket_id": 22518,
        "mtgo_id": 36644,
        "tcgplayer_id": 34751,
        "cardkingdom_id": 130778,
        "cardkingdom_foil_id": 131019,
        "reprint": false,
        "set_type": "expansion",
        "coolStuffIncUrl": "http://www.coolstuffinc.com/p/Magic%3A+The+Gathering/Coralhelm+Commander",
        "coolStuffIncFoilUrl": "http://www.coolstuffinc.com/p/Magic%3A+The+Gathering/Coralhelm+Commander",
        "acorn": false,
        "image_seq": 114151451,
        "cardTraderUrl": "https://www.cardtrader.com/cards/18836",
        "cardTraderFoilUrl": "https://www.cardtrader.com/cards/18836",
        "content_warning": false,
        "isToken": false,
        "defaultFinish": "nonFoil"
      }
    }
  ]
}